isim.log
ISim log file
Running: C:\Users\hosse\Desktop\Logic\Parking\FSM_tb_isim_beh.exe -intstyle ise -gui -tclbatch isim.cmd -wdb C:/Users/hosse/Desktop/Logic/Parking/FSM_tb_isim_beh.wdb 
ISim P.20131013 (signature 0x7708f090)
----------------------------------------------------------------------
INFO:Security:51 - The XILINXD_LICENSE_FILE environment variable is not set.
INFO:Security:53 - The LM_LICENSE_FILE environment variable is not set.
INFO:Security:68a - user is hosse, on host DESKTOP-SU6J8IB.
WARNING:Security:43 - No license file was found in the standard Xilinx license directory.
WARNING:Security:44 - Since no license file was found,
       please run the Xilinx License Configuration Manager
       (xlcm or "Manage Xilinx Licenses")
       to assist in obtaining a license.
ERROR:Security:14 - No feature was available for 'ISIM'.

No such feature exists.
Feature:       ISIM
License path:  C:/.Xilinx;D:\iSE\14.7\ISE_DS\ISE\/coregen/core_licenses\Xilinx.lic;D:\iSE\14.7\ISE_DS\ISE\/coregen/core_licenses\XilinxFree.lic;D:\iSE\14.7\ISE_DS\EDK/data/core_licenses\Xilinx.lic;
FLEXnet Licensing error:-5,357
For further information, refer to the FLEXnet Licensing documentation,
available at "www.flexerasoftware.com".
----------------------------------------------------------------------
WARNING: A full ISim License cannot be checked out due to the issues listed above. Please use Xilinx License Configuration Manager to fix these issues in order to check out a full ISim license.
WARNING: ISim will run in Lite mode. Please refer to the ISim documentation for more information on the differences between the Lite and the Full version.
This is a Lite version of ISim.
Time resolution is 1 ps
# onerror resume
# wave add /
# run 1000 ns
Simulator is doing circuit initialization process.
Finished circuit initialization process.
Initial state: state=0000, doorOpen=0, isFull=0, CapacityBCD= 4, nextParkingBCD= 1
After 1st enter: state=0001, doorOpen=1, isFull=0, CapacityBCD= 4, nextParkingBCD= 1
After 2nd enter: state=0011, doorOpen=1, isFull=0, CapacityBCD= 3, nextParkingBCD= 2
After 3rd enter: state=0011, doorOpen=0, isFull=0, CapacityBCD= 2, nextParkingBCD= 3
After 4th enter: state=0111, doorOpen=1, isFull=0, CapacityBCD= 2, nextParkingBCD= 3
After 1st exit (location 0): state=0101, doorOpen=1, isFull=0, CapacityBCD= 1, nextParkingBCD= 4
After 2nd exit (location 1): state=0111, doorOpen=1, isFull=0, CapacityBCD= 2, nextParkingBCD= 2
After 2nd exit (location 1): state=0110, doorOpen=1, isFull=0, CapacityBCD= 1, nextParkingBCD= 4
After 2nd exit (location 1): state=0110, doorOpen=0, isFull=0, CapacityBCD= 2, nextParkingBCD= 1
After 2nd exit (location 1): state=0111, doorOpen=1, isFull=0, CapacityBCD= 2, nextParkingBCD= 1
After 2nd exit (location 1): state=1111, doorOpen=1, isFull=0, CapacityBCD= 1, nextParkingBCD= 4
After 2nd exit (location 1): state=1111, doorOpen=0, isFull=1, CapacityBCD= 0, nextParkingBCD= 0
After 2nd exit (location 1): state=1111, doorOpen=0, isFull=1, CapacityBCD= 0, nextParkingBCD= 0
After 2nd exit (location 1): state=1111, doorOpen=0, isFull=1, CapacityBCD= 0, nextParkingBCD= 0
After 2nd exit (location 1): state=1110, doorOpen=1, isFull=1, CapacityBCD= 0, nextParkingBCD= 0
After 2nd exit (location 1): state=1110, doorOpen=0, isFull=0, CapacityBCD= 1, nextParkingBCD= 1
After 2nd exit (location 1): state=1010, doorOpen=1, isFull=0, CapacityBCD= 1, nextParkingBCD= 1
After 2nd exit (location 1): state=0010, doorOpen=1, isFull=0, CapacityBCD= 2, nextParkingBCD= 1
After 2nd exit (location 1): state=0000, doorOpen=1, isFull=0, CapacityBCD= 3, nextParkingBCD= 1
After 2nd exit (location 1): state=0000, doorOpen=0, isFull=0, CapacityBCD= 4, nextParkingBCD= 1
After reset: state=0000, doorOpen=0, isFull=0, CapacityBCD= 4, nextParkingBCD= 1
Stopped at time : 230 ns :  in File "C:/Users/hosse/Desktop/Logic/Parking/FSM_tb.v" Line 247 
